{
  "LazyVim": { "branch": "main", "commit": "3f034d0a7f58031123300309f2efd3bb0356ee21" },
  "LuaSnip": { "branch": "master", "commit": "c9b9a22904c97d0eb69ccb9bab76037838326817" },
  "SchemaStore.nvim": { "branch": "main", "commit": "171c54b58076c7454c40da4dfba1aab21171c143" },
  "blink-emoji.nvim": { "branch": "master", "commit": "a77aebc092ebece1eed108f301452ae774d6b67a" },
  "blink.cmp": { "branch": "main", "commit": "dcda20d3aa345025699a920c45b0a0603551f41d" },
  "bufferline.nvim": { "branch": "main", "commit": "655133c3b4c3e5e05ec549b9f8cc2894ac6f51b3" },
  "catppuccin": { "branch": "main", "commit": "4965db2d6155c25db4e8417465fc2703fdf4c2b7" },
  "conform.nvim": { "branch": "master", "commit": "db8a4a9edb217067b1d7a2e0362c74bfe9cc944d" },
  "diffview.nvim": { "branch": "main", "commit": "4516612fe98ff56ae0415a259ff6361a89419b0a" },
  "dressing.nvim": { "branch": "master", "commit": "2d7c2db2507fa3c4956142ee607431ddb2828639" },
  "fidget.nvim": { "branch": "main", "commit": "d9ba6b7bfe29b3119a610892af67602641da778e" },
  "flash.nvim": { "branch": "main", "commit": "3c942666f115e2811e959eabbdd361a025db8b63" },
  "friendly-snippets": { "branch": "main", "commit": "efff286dd74c22f731cdec26a70b46e5b203c619" },
  "fzf-lua": { "branch": "main", "commit": "e6afa1aa22893280720cde1cdd0b0b188d5815af" },
  "git-messenger.vim": { "branch": "master", "commit": "edc603d4cda7894a743e383e16c638e206d03148" },
  "gitsigns.nvim": { "branch": "main", "commit": "4c40357994f386e72be92a46f41fc1664c84c87d" },
  "grug-far.nvim": { "branch": "main", "commit": "3d39dc8b31d4ab7aad1b9ffdba136eafc6c7c360" },
  "gv.vim": { "branch": "master", "commit": "b6bb6664e2c95aa584059f195eb3a9f3cb133994" },
  "indent-blankline.nvim": { "branch": "master", "commit": "e10626f7fcd51ccd56d7ffc00883ba7e0aa28f78" },
  "lazy.nvim": { "branch": "main", "commit": "6c3bda4aca61a13a9c63f1c1d1b16b9d3be90d7a" },
  "lazydev.nvim": { "branch": "main", "commit": "2367a6c0a01eb9edb0464731cc0fb61ed9ab9d2c" },
  "lsp-format.nvim": { "branch": "master", "commit": "47de35b54ec95bb049f52016632394b914d4d9e9" },
  "lspkind.nvim": { "branch": "master", "commit": "d79a1c3299ad0ef94e255d045bed9fa26025dab6" },
  "lualine.nvim": { "branch": "master", "commit": "f4f791f67e70d378a754d02da068231d2352e5bc" },
  "mason-lspconfig.nvim": { "branch": "main", "commit": "1a31f824b9cd5bc6f342fc29e9a53b60d74af245" },
  "mason-null-ls.nvim": { "branch": "main", "commit": "de19726de7260c68d94691afb057fa73d3cc53e7" },
  "mason-nvim-dap.nvim": { "branch": "main", "commit": "09220b99d63d5363f219daa2785242ee5fddba7f" },
  "mason.nvim": { "branch": "main", "commit": "fc98833b6da5de5a9c5b1446ac541577059555be" },
  "mini.ai": { "branch": "main", "commit": "6e01c0e5a15554852546fac9853960780ac52ed4" },
  "mini.bufremove": { "branch": "main", "commit": "bba1d8b413d37081756f59200b8cf756181e5b9a" },
  "mini.icons": { "branch": "main", "commit": "ec61af6e606fc89ee3b1d8f2f20166a3ca917a36" },
  "mini.pairs": { "branch": "main", "commit": "1a3e73649c0eaef2f6c48ce1e761c6f0a7c11918" },
  "neo-tree.nvim": { "branch": "main", "commit": "9f0c96720559461530a51d3e1c170519345941da" },
  "neogit": { "branch": "master", "commit": "12f78aaabb37b4946254dd5e47cf7b552904937a" },
  "noice.nvim": { "branch": "main", "commit": "dbfc5fbab19ff1c3e29a3268ffa5eda4c09c72ce" },
  "none-ls.nvim": { "branch": "main", "commit": "a117163db44c256d53c3be8717f3e1a2a28e6299" },
  "nui.nvim": { "branch": "main", "commit": "8d3bce9764e627b62b07424e0df77f680d47ffdb" },
  "nvim-bqf": { "branch": "main", "commit": "ebb6d2689e4427452180f17c53f29f7e460236f1" },
  "nvim-colorizer.lua": { "branch": "master", "commit": "517df88cf2afb36652830df2c655df2da416a0ae" },
  "nvim-dap": { "branch": "master", "commit": "8228cb00ab0850e483f8d58cc39cc580c05738d6" },
  "nvim-dap-ui": { "branch": "master", "commit": "bc81f8d3440aede116f821114547a476b082b319" },
  "nvim-dap-virtual-text": { "branch": "master", "commit": "df66808cd78b5a97576bbaeee95ed5ca385a9750" },
  "nvim-lint": { "branch": "master", "commit": "6e9dd545a1af204c4022a8fcd99727ea41ffdcc8" },
  "nvim-lspconfig": { "branch": "master", "commit": "84e0cd5a3c58e88ef706fdf4a1eed59ded1d3ce2" },
  "nvim-nio": { "branch": "master", "commit": "21f5324bfac14e22ba26553caf69ec76ae8a7662" },
  "nvim-tree.lua": { "branch": "master", "commit": "c09ff35de503a41fa62465c6b4ae72d96e7a7ce4" },
  "nvim-treesitter": { "branch": "master", "commit": "f22181a62c47bf591fbfd6ada7d9a1156278d6e0" },
  "nvim-treesitter-context": { "branch": "master", "commit": "198720b4016af04c9590f375d714d5bf8afecc1a" },
  "nvim-treesitter-endwise": { "branch": "master", "commit": "cb718aab7fa66e43187674e875713097492a6618" },
  "nvim-treesitter-textobjects": { "branch": "master", "commit": "8b2d4d519f3516d09910f5baf48d1a47b594f0ce" },
  "nvim-ts-autotag": { "branch": "main", "commit": "a1d526af391f6aebb25a8795cbc05351ed3620b5" },
  "onedarkpro.nvim": { "branch": "main", "commit": "c96c21800e94630e6871981e75245caaa1b31bb7" },
  "persisted.nvim": { "branch": "main", "commit": "1a6e16e80ee59ddf720e9389729a4de4ab093587" },
  "persistence.nvim": { "branch": "main", "commit": "f6aad7dde7fcf54148ccfc5f622c6d5badd0cc3d" },
  "plenary.nvim": { "branch": "master", "commit": "857c5ac632080dba10aae49dba902ce3abf91b35" },
  "render-markdown.nvim": { "branch": "main", "commit": "b56fa1bc7b513f16a1c361b81438f4944b420a32" },
  "rust-tools.nvim": { "branch": "master", "commit": "676187908a1ce35ffcd727c654ed68d851299d3e" },
  "rust.vim": { "branch": "master", "commit": "889b9a7515db477f4cb6808bef1769e53493c578" },
  "snacks.nvim": { "branch": "main", "commit": "bc0630e43be5699bb94dadc302c0d21615421d93" },
  "telescope-fzf-native.nvim": { "branch": "main", "commit": "2a5ceff981501cff8f46871d5402cd3378a8ab6a" },
  "telescope.nvim": { "branch": "master", "commit": "814f102cd1da3dc78c7d2f20f2ef3ed3cdf0e6e4" },
  "tmuxline.vim": { "branch": "master", "commit": "4119c553923212cc67f4e135e6f946dc3ec0a4d6" },
  "todo-comments.nvim": { "branch": "main", "commit": "304a8d204ee787d2544d8bc23cd38d2f929e7cc5" },
  "tokyonight.nvim": { "branch": "main", "commit": "dca4adba7dc5f09302a00b0e76078d54d82d2658" },
  "trouble.nvim": { "branch": "main", "commit": "85bedb7eb7fa331a2ccbecb9202d8abba64d37b3" },
  "ts-comments.nvim": { "branch": "main", "commit": "1bd9d0ba1d8b336c3db50692ffd0955fe1bb9f0c" },
  "undotree": { "branch": "master", "commit": "86df4075f0e24ebae8b6190621a48b1f0eb488d3" },
  "vim-fugitive": { "branch": "master", "commit": "4a745ea72fa93bb15dd077109afbb3d1809383f2" },
  "vim-rails": { "branch": "master", "commit": "b0a5c76f86ea214ade36ab0b811e730c3f0add67" },
  "vim-repeat": { "branch": "master", "commit": "65846025c15494983dafe5e3b46c8f88ab2e9635" },
  "vim-ruby-doc": { "branch": "master", "commit": "0d7761d1f982eb86da094c46ffcc421809cd9574" },
  "vim-surround": { "branch": "master", "commit": "3d188ed2113431cf8dac77be61b842acb64433d9" },
  "vim-test": { "branch": "master", "commit": "0f50a546aef59efe5f1301de8fa9819ecb9fd482" },
  "vim-tmux-navigator": { "branch": "master", "commit": "791dacfcfc8ccb7f6eb1c853050883b03e5a22fe" },
  "vim-togglelist": { "branch": "master", "commit": "48f0d30292efdf20edc883e61b121e6123e03df7" },
  "vim-unimpaired": { "branch": "master", "commit": "6d44a6dc2ec34607c41ec78acf81657248580bf1" },
  "which-key.nvim": { "branch": "main", "commit": "370ec46f710e058c9c1646273e6b225acf47cbed" },
  "yanky.nvim": { "branch": "main", "commit": "80d9385dbebe7049fd1961d7909b835a58ce9dcc" }
}
